{
  "images" : [
    {
      "idiom" : "universal",
      "filename" : "twitter_black_small.png",
      "scale" : "1x"
    },
    {
      "idiom" : "universal",
      "scale" : "2x"
    },
    {
      "idiom" : "universal",
      "scale" : "3x"
    },
    {
      "idiom" : "universal",
      "filename" : "twitter_black.png",
      "width-class" : "regular",
      "scale" : "1x"
    },
    {
      "idiom" : "universal",
      "scale" : "2x",
      "width-class" : "regular"
    },
    {
      "idiom" : "universal",
      "scale" : "3x",
      "width-class" : "regular"
    }
  ],
  "info" : {
    "version" : 1,
    "author" : "xcode"
  }
}